Impacts of Winning a Championship on Birth Rates
…
Tidying: Rearranging Wide/Long

Champions2 <- Champions %>% pivot_longer(contains("State")) %>% 
    pivot_wider(names_from = "name") %>% select("Year", "NFL", 
    "NFL State", "MLB", "MLB State", "NHL", "NHL State", "NBA", 
    "NBA State")

Champions %>% pivot_longer(contains("State")) %>% pivot_wider(names_from = "name") %>% 
    select("Year", "NFL", "NFL State", "MLB", "MLB State", "NHL", 
        "NHL State", "NBA", "NBA State")

## # A tibble: 51 x 9
##     Year NFL   `NFL State` MLB   `MLB State` NHL   `NHL State` NBA   `NBA State`
##    <dbl> <chr> <chr>       <chr> <chr>       <chr> <chr>       <chr> <chr>      
##  1  1970 Colts MD          Orio… MD          Brui… MA          Knic… NY         
##  2  1971 Cowb… TX          Pira… PA          Cana… <NA>        Bucks WI         
##  3  1972 Dolp… FL          Athl… CA          Brui… MA          Lake… CA         
##  4  1973 Dolp… FL          Athl… CA          Cana… <NA>        Knic… NY         
##  5  1974 Stee… PA          Athl… CA          Flye… PA          Celt… MA         
##  6  1975 Stee… PA          Reds  OH          Flye… PA          Warr… CA         
##  7  1976 Raid… CA          Reds  OH          Cana… <NA>        Celt… MA         
##  8  1977 Cowb… TX          Yank… NY          Cana… <NA>        Trai… OR         
##  9  1978 Stee… PA          Yank… NY          Cana… <NA>        Bull… <NA>       
## 10  1979 Stee… PA          Pira… PA          Cana… <NA>        Supe… WA         
## # … with 41 more rows

Here I am showing how pivot_longer and pivot_wider are inverses of one another. The pivot_longer step puts all of the league state column titles into one (changing number of columns from 9 to 7 and increasing the number of rows from 51 to 204) while the pivot_wider step essentially undoes this and gives each year its own row. The final select step makes the data easier to read with the corresponding state of the team located in the column directly to the right of the team name. This data format was saved as a new data set for joining in the future.

Joining Data Sets

BirthRates %>% left_join(Champions2, by = c(YEAR = "Year")) %>% 
    mutate(State_Code = state.abb[match(BirthRates$NAME, state.name)]) %>% 
    select(c(-"FIPS", -"TYPE", -"POP CHANGE")) %>% select(2, 
    1, 13, 3:12)

## # A tibble: 950 x 13
##     YEAR NAME  State_Code   TFR BIRTHS NFL   `NFL State` MLB   `MLB State` NHL  
##    <dbl> <chr> <chr>      <dbl>  <dbl> <chr> <chr>       <chr> <chr>       <chr>
##  1  2000 Alab… AL          2.02  63299 Rave… MD          Yank… NY          Devi…
##  2  2001 Alab… AL          1.94  60454 Patr… MA          Diam… AZ          Aval…
##  3  2002 Alab… AL          1.88  58967 Bucc… FL          Ange… CA          Red …
##  4  2003 Alab… AL          1.92  59552 Patr… MA          Marl… FL          Devi…
##  5  2004 Alab… AL          1.91  59510 Patr… MA          Red … MA          Ligh…
##  6  2005 Alab… AL          1.93  60453 Stee… PA          Whit… IL          <NA> 
##  7  2006 Alab… AL          2.03  63232 Colts IN          Card… MO          Hurr…
##  8  2007 Alab… AL          2.07  64804 Gian… NY          Red … MA          Ducks
##  9  2008 Alab… AL          2.06  64546 Stee… PA          Phil… PA          Red …
## 10  2009 Alab… AL          1.96  62475 Sain… LA          Yank… NY          Peng…
## # … with 940 more rows, and 3 more variables: NHL State <chr>, NBA <chr>,
## #   NBA State <chr>
Project1Data <- BirthRates %>% left_join(Champions2, by = c(YEAR = "Year")) %>% 
    mutate(St_Code = state.abb[match(BirthRates$NAME, state.name)]) %>% 
    select(c(-"FIPS", -"TYPE", -"POP CHANGE")) %>% select(2, 
    1, 13, 3:12)

I used left_join here to remove all the Champions data before the year 2000. This is not a problem to remove this data as we would only be able to look at the trend of interest for years containing birth rate data (Years 2000-2018). I then used mutate to create a new column with the state codes associated with the name of the state from the Birth Rates data as this will make it easier to match with the Champions data. I removed the ‘FIPS’ and ‘TYPE’ columns using select as this information was extraneous and repetitive while reordering the data frame to make it more readable. This modified data was then saved as a new dataframe

Wrangling

StateSummary <- Project1Data %>% group_by(NAME) %>%
  summarize(mean(TFR), sd(TFR), mean(BIRTHS), sd(BIRTHS), IQR(TFR), IQR(BIRTHS), min(TFR), min(BIRTHS), max(TFR), max(BIRTHS), median (TFR), median (BIRTHS))

StateSummary

## # A tibble: 50 x 13
##    NAME        `mean(TFR)` `sd(TFR)` `mean(BIRTHS)` `sd(BIRTHS)` `IQR(TFR)`
##    <chr>             <dbl>     <dbl>          <dbl>        <dbl>      <dbl>
##  1 Alabama            1.90    0.0915         60434.        2148.      0.120
##  2 Alaska             2.29    0.153          10820.         602.      0.225
##  3 Arizona            2.18    0.282          89558.        6613.      0.415
##  4 Arkansas           2.04    0.0924         38645.        1272.      0.120
##  5 California         1.99    0.189         518540        30833.      0.310
##  6 Colorado           1.96    0.231          67145.        2272.      0.325
##  7 Connecticut        1.78    0.140          39092.        3036.      0.275
##  8 Delaware           1.92    0.125          11269.         448.      0.210
##  9 Florida            1.92    0.166         219572.        9841.      0.285
## 10 Georgia            2.02    0.174         135655.        7172.      0.295
## # … with 40 more rows, and 7 more variables: IQR(BIRTHS) <dbl>, min(TFR) <dbl>,
## #   min(BIRTHS) <dbl>, max(TFR) <dbl>, max(BIRTHS) <dbl>, median(TFR) <dbl>,
## #   median(BIRTHS) <dbl>
…
